G04 #@! TF.GenerationSoftware,KiCad,Pcbnew,5.1.5-52549c5~86~ubuntu18.04.1*
G04 #@! TF.CreationDate,2020-04-19T16:58:37+02:00*
G04 #@! TF.ProjectId,orto-node,6f72746f-2d6e-46f6-9465-2e6b69636164,rev?*
G04 #@! TF.SameCoordinates,Original*
G04 #@! TF.FileFunction,Profile,NP*
%FSLAX46Y46*%
G04 Gerber Fmt 4.6, Leading zero omitted, Abs format (unit mm)*
G04 Created by KiCad (PCBNEW 5.1.5-52549c5~86~ubuntu18.04.1) date 2020-04-19 16:58:37*
%MOMM*%
%LPD*%
G04 APERTURE LIST*
%ADD10C,0.050000*%
G04 APERTURE END LIST*
D10*
X135890000Y-50800000D02*
X135890000Y-111760000D01*
X208280000Y-50800000D02*
X135890000Y-50800000D01*
X208280000Y-111760000D02*
X208280000Y-50800000D01*
X135890000Y-111760000D02*
X208280000Y-111760000D01*
M02*
