G04 #@! TF.GenerationSoftware,KiCad,Pcbnew,5.1.5-52549c5~86~ubuntu18.04.1*
G04 #@! TF.CreationDate,2020-04-19T16:58:37+02:00*
G04 #@! TF.ProjectId,orto-node,6f72746f-2d6e-46f6-9465-2e6b69636164,rev?*
G04 #@! TF.SameCoordinates,Original*
G04 #@! TF.FileFunction,Copper,L2,Bot*
G04 #@! TF.FilePolarity,Positive*
%FSLAX46Y46*%
G04 Gerber Fmt 4.6, Leading zero omitted, Abs format (unit mm)*
G04 Created by KiCad (PCBNEW 5.1.5-52549c5~86~ubuntu18.04.1) date 2020-04-19 16:58:37*
%MOMM*%
%LPD*%
G04 APERTURE LIST*
%ADD10C,0.050000*%
%ADD11O,1.700000X1.700000*%
%ADD12R,1.700000X1.700000*%
%ADD13C,1.524000*%
%ADD14O,1.600000X1.600000*%
%ADD15C,1.600000*%
%ADD16R,1.500000X1.500000*%
%ADD17C,1.500000*%
%ADD18R,1.524000X1.524000*%
%ADD19C,0.250000*%
G04 APERTURE END LIST*
D10*
X135890000Y-50800000D02*
X135890000Y-111760000D01*
X208280000Y-50800000D02*
X135890000Y-50800000D01*
X208280000Y-111760000D02*
X208280000Y-50800000D01*
X135890000Y-111760000D02*
X208280000Y-111760000D01*
D11*
X161290000Y-101600000D03*
D12*
X161290000Y-104140000D03*
D11*
X142240000Y-77470000D03*
D12*
X144780000Y-77470000D03*
D13*
X160020000Y-76200000D03*
X190500000Y-86360000D03*
X193040000Y-86360000D03*
X195580000Y-86360000D03*
X190500000Y-88900000D03*
X193040000Y-88900000D03*
X195580000Y-88900000D03*
X158750000Y-87630000D03*
X158750000Y-85090000D03*
X158750000Y-82550000D03*
X158750000Y-80010000D03*
X203200000Y-91440000D03*
X200660000Y-91440000D03*
X198120000Y-91440000D03*
X195580000Y-91440000D03*
X193040000Y-91440000D03*
X190500000Y-91440000D03*
X187960000Y-91440000D03*
X185420000Y-91440000D03*
X182880000Y-91440000D03*
X180340000Y-91440000D03*
X177800000Y-91440000D03*
X175260000Y-91440000D03*
X172720000Y-91440000D03*
X170180000Y-91440000D03*
X167640000Y-91440000D03*
X165100000Y-91440000D03*
X162560000Y-91440000D03*
X160020000Y-91440000D03*
X157480000Y-91440000D03*
X154940000Y-91440000D03*
X154940000Y-76200000D03*
X157480000Y-76200000D03*
X162560000Y-76200000D03*
X165100000Y-76200000D03*
X167640000Y-76200000D03*
X170180000Y-76200000D03*
X172720000Y-76200000D03*
X175260000Y-76200000D03*
X177800000Y-76200000D03*
X180340000Y-76200000D03*
X182880000Y-76200000D03*
X185420000Y-76200000D03*
X187960000Y-76200000D03*
X190500000Y-76200000D03*
X193040000Y-76200000D03*
X195580000Y-76200000D03*
X198120000Y-76200000D03*
X200660000Y-76200000D03*
X203200000Y-76200000D03*
D14*
X187960000Y-88900000D03*
D15*
X187960000Y-78740000D03*
D14*
X189230000Y-104140000D03*
D15*
X189230000Y-93980000D03*
D14*
X185420000Y-78740000D03*
D15*
X185420000Y-88900000D03*
D14*
X182880000Y-78740000D03*
D15*
X182880000Y-88900000D03*
D14*
X180340000Y-78740000D03*
D15*
X180340000Y-88900000D03*
D14*
X177800000Y-78740000D03*
D15*
X177800000Y-88900000D03*
D14*
X175260000Y-78740000D03*
D15*
X175260000Y-88900000D03*
D14*
X172720000Y-78740000D03*
D15*
X172720000Y-88900000D03*
D14*
X170180000Y-78740000D03*
D15*
X170180000Y-88900000D03*
D14*
X167640000Y-78740000D03*
D15*
X167640000Y-88900000D03*
D14*
X165100000Y-78740000D03*
D15*
X165100000Y-88900000D03*
D11*
X185420000Y-99060000D03*
X185420000Y-101600000D03*
X185420000Y-104140000D03*
D12*
X185420000Y-106680000D03*
D11*
X182880000Y-99060000D03*
X182880000Y-101600000D03*
X182880000Y-104140000D03*
D12*
X182880000Y-106680000D03*
D11*
X180340000Y-99060000D03*
X180340000Y-101600000D03*
X180340000Y-104140000D03*
D12*
X180340000Y-106680000D03*
D11*
X177800000Y-99060000D03*
X177800000Y-101600000D03*
X177800000Y-104140000D03*
D12*
X177800000Y-106680000D03*
D11*
X175260000Y-99060000D03*
X175260000Y-101600000D03*
X175260000Y-104140000D03*
D12*
X175260000Y-106680000D03*
D11*
X172720000Y-99060000D03*
X172720000Y-101600000D03*
X172720000Y-104140000D03*
D12*
X172720000Y-106680000D03*
D11*
X170180000Y-99060000D03*
X170180000Y-101600000D03*
X170180000Y-104140000D03*
D12*
X170180000Y-106680000D03*
D11*
X167640000Y-99060000D03*
X167640000Y-101600000D03*
X167640000Y-104140000D03*
D12*
X167640000Y-106680000D03*
D11*
X165100000Y-99060000D03*
X165100000Y-101600000D03*
X165100000Y-104140000D03*
D12*
X165100000Y-106680000D03*
D16*
X144780000Y-88900000D03*
D17*
X144780000Y-93980000D03*
X144780000Y-91440000D03*
D14*
X190500000Y-81280000D03*
D15*
X200660000Y-81280000D03*
D11*
X185420000Y-66040000D03*
X187960000Y-66040000D03*
X190500000Y-66040000D03*
X193040000Y-66040000D03*
D12*
X195580000Y-66040000D03*
D15*
X149860000Y-82550000D03*
D14*
X149860000Y-72390000D03*
D13*
X157480000Y-63500000D03*
X154940000Y-63500000D03*
X157480000Y-60960000D03*
X154940000Y-60960000D03*
X157480000Y-58420000D03*
X154940000Y-58420000D03*
X157480000Y-55880000D03*
D18*
X154940000Y-55880000D03*
D19*
X152400000Y-66040000D02*
X152400000Y-55880000D01*
X152400000Y-55880000D02*
X154940000Y-55880000D01*
X157480000Y-76200000D02*
X157480000Y-71120000D01*
X157480000Y-71120000D02*
X152400000Y-66040000D01*
X174498001Y-75438001D02*
X175260000Y-76200000D01*
X158750000Y-59690000D02*
X175260000Y-76200000D01*
X156210000Y-59690000D02*
X158750000Y-59690000D01*
X154940000Y-63500000D02*
X156210000Y-63500000D01*
X156210000Y-63500000D02*
X156210000Y-59690000D01*
X157480000Y-60960000D02*
X172720000Y-76200000D01*
X157480000Y-66040000D02*
X167640000Y-76200000D01*
X157480000Y-63500000D02*
X157480000Y-66040000D01*
X154940000Y-69850000D02*
X151130000Y-66040000D01*
X154940000Y-76200000D02*
X154940000Y-69850000D01*
X151130000Y-66040000D02*
X151130000Y-54610000D01*
X157480000Y-54610000D02*
X157480000Y-55880000D01*
X151130000Y-54610000D02*
X157480000Y-54610000D01*
M02*
