EESchema Schematic File Version 4
EELAYER 30 0
EELAYER END
$Descr A4 11693 8268
encoding utf-8
Sheet 1 1
Title "Orto node 5+5"
Date "2020-04-19"
Rev "1"
Comp ""
Comment1 ""
Comment2 ""
Comment3 ""
Comment4 ""
$EndDescr
$Comp
L RF:NRF24L01_Breakout U2
U 1 1 5D8698F5
P 7850 2450
F 0 "U2" H 8230 2496 50  0000 L CNN
F 1 "NRF24L01_Breakout" H 8230 2405 50  0000 L CNN
F 2 "RF_Module:nRF24L01_Breakout" H 8000 3050 50  0001 L CIN
F 3 "http://www.nordicsemi.com/eng/content/download/2730/34105/file/nRF24L01_Product_Specification_v2_0.pdf" H 7850 2350 50  0001 C CNN
	1    7850 2450
	1    0    0    -1  
$EndComp
Wire Wire Line
	6200 2700 6750 2700
Wire Wire Line
	6750 2700 6750 2250
Wire Wire Line
	6750 2250 7350 2250
Wire Wire Line
	6200 2600 6650 2600
Wire Wire Line
	6650 2600 6650 2150
Wire Wire Line
	6650 2150 7350 2150
Wire Wire Line
	6200 2800 6850 2800
Wire Wire Line
	6850 2800 6850 2350
Wire Wire Line
	6850 2350 7350 2350
Wire Wire Line
	6200 2500 7050 2500
Wire Wire Line
	7050 2500 7050 2650
Wire Wire Line
	7050 2650 7350 2650
Wire Wire Line
	6200 2400 6950 2400
Wire Wire Line
	6950 2400 6950 2750
Wire Wire Line
	6950 2750 7350 2750
Wire Wire Line
	6200 2900 7200 2900
Wire Wire Line
	7200 2900 7200 2450
Wire Wire Line
	7200 2450 7350 2450
Text Label 6500 2200 2    50   ~ 0
CTL_VBAT
Text Label 6500 2300 2    50   ~ 0
CTL_3V3
Wire Wire Line
	3900 2700 4700 2700
Wire Wire Line
	4000 2800 4700 2800
Wire Wire Line
	4100 2900 4700 2900
Wire Wire Line
	4200 5000 4200 3000
Wire Wire Line
	4300 4900 4300 3100
Wire Wire Line
	4300 3100 4700 3100
Wire Wire Line
	4700 3200 4400 3200
Wire Wire Line
	4400 3200 4400 4800
Wire Wire Line
	4700 3300 4500 3300
Wire Wire Line
	4500 3300 4500 4700
Wire Wire Line
	4700 3400 4600 3400
Wire Wire Line
	4600 3400 4600 4600
Wire Wire Line
	4600 4600 8850 4600
$Comp
L power:+BATT #PWR0104
U 1 1 5D9345F0
P 5600 2000
F 0 "#PWR0104" H 5600 1850 50  0001 C CNN
F 1 "+BATT" H 5615 2173 50  0000 C CNN
F 2 "" H 5600 2000 50  0001 C CNN
F 3 "" H 5600 2000 50  0001 C CNN
	1    5600 2000
	1    0    0    -1  
$EndComp
Wire Wire Line
	5600 2000 5600 1950
Wire Wire Line
	5450 1950 5450 1700
Wire Wire Line
	5450 1700 7850 1700
Wire Wire Line
	7850 1700 7850 1850
$Comp
L power:GND #PWR0105
U 1 1 5D944894
P 7850 3100
F 0 "#PWR0105" H 7850 2850 50  0001 C CNN
F 1 "GND" H 7855 2927 50  0000 C CNN
F 2 "" H 7850 3100 50  0001 C CNN
F 3 "" H 7850 3100 50  0001 C CNN
	1    7850 3100
	1    0    0    -1  
$EndComp
Wire Wire Line
	7850 3050 7850 3100
$Comp
L power:GND #PWR0106
U 1 1 5D94801E
P 5600 4350
F 0 "#PWR0106" H 5600 4100 50  0001 C CNN
F 1 "GND" H 5605 4177 50  0000 C CNN
F 2 "" H 5600 4350 50  0001 C CNN
F 3 "" H 5600 4350 50  0001 C CNN
	1    5600 4350
	1    0    0    -1  
$EndComp
Wire Wire Line
	5400 4050 5600 4050
$Comp
L Device:R R7
U 1 1 5D8FE65B
P 5300 4200
F 0 "R7" H 5230 4154 50  0000 R CNN
F 1 "1K" H 5230 4245 50  0000 R CNN
F 2 "Resistor_THT:R_Axial_DIN0207_L6.3mm_D2.5mm_P10.16mm_Horizontal" V 5230 4200 50  0001 C CNN
F 3 "~" H 5300 4200 50  0001 C CNN
	1    5300 4200
	-1   0    0    1   
$EndComp
Wire Wire Line
	5300 4350 5600 4350
Wire Wire Line
	5600 4050 5600 4350
Connection ~ 5600 4350
$Comp
L Connector_Generic:Conn_01x05 J12
U 1 1 5D918BEB
P 4350 1050
F 0 "J12" V 4314 762 50  0000 R CNN
F 1 "Conn_01x05" V 4223 762 50  0000 R CNN
F 2 "Connector_PinHeader_2.54mm:PinHeader_1x05_P2.54mm_Vertical" H 4350 1050 50  0001 C CNN
F 3 "~" H 4350 1050 50  0001 C CNN
	1    4350 1050
	0    -1   -1   0   
$EndComp
$Comp
L power:GND #PWR0109
U 1 1 5D91A2A2
P 4350 1500
F 0 "#PWR0109" H 4350 1250 50  0001 C CNN
F 1 "GND" H 4355 1327 50  0000 C CNN
F 2 "" H 4350 1500 50  0001 C CNN
F 3 "" H 4350 1500 50  0001 C CNN
	1    4350 1500
	1    0    0    -1  
$EndComp
Text Label 6500 3300 0    50   ~ 0
TX1
Text Label 6500 3200 0    50   ~ 0
RX1
Wire Wire Line
	6200 3200 6500 3200
Wire Wire Line
	6200 3300 6500 3300
Text Label 4250 1500 1    50   ~ 0
RX1
Text Label 4150 1500 1    50   ~ 0
TX1
Wire Wire Line
	4150 1250 4150 1500
Wire Wire Line
	4250 1250 4250 1500
$Comp
L power:+3.3V #PWR0110
U 1 1 5D951447
P 5450 1700
F 0 "#PWR0110" H 5450 1550 50  0001 C CNN
F 1 "+3.3V" H 5465 1873 50  0000 C CNN
F 2 "" H 5450 1700 50  0001 C CNN
F 3 "" H 5450 1700 50  0001 C CNN
	1    5450 1700
	1    0    0    -1  
$EndComp
Connection ~ 5450 1700
$Comp
L power:+3.3V #PWR0111
U 1 1 5D951D42
P 4600 1250
F 0 "#PWR0111" H 4600 1100 50  0001 C CNN
F 1 "+3.3V" V 4615 1378 50  0000 L CNN
F 2 "" H 4600 1250 50  0001 C CNN
F 3 "" H 4600 1250 50  0001 C CNN
	1    4600 1250
	0    1    1    0   
$EndComp
Wire Wire Line
	4550 1250 4600 1250
Text Label 4950 4050 0    50   ~ 0
BOOT0
Wire Wire Line
	4950 4050 5300 4050
Text Label 4450 1500 1    50   ~ 0
BOOT0
Wire Wire Line
	4450 1250 4450 1500
Wire Wire Line
	3700 2500 4700 2500
Wire Wire Line
	6200 2200 6500 2200
Wire Wire Line
	6200 2300 6500 2300
Wire Wire Line
	4350 1250 4350 1500
Wire Wire Line
	5900 5100 5900 5750
Wire Wire Line
	5300 5200 5300 5750
Wire Wire Line
	4700 5300 4700 5750
Wire Wire Line
	4100 5400 4100 5750
Wire Wire Line
	3500 5450 3500 5750
Wire Wire Line
	5400 5500 6000 5500
Wire Wire Line
	6000 5500 6000 5750
Connection ~ 5400 5500
Wire Wire Line
	5400 5500 5400 5750
Wire Wire Line
	4800 5500 5400 5500
Connection ~ 4800 5500
Wire Wire Line
	4800 5500 4800 5750
Wire Wire Line
	4200 5500 4800 5500
Connection ~ 4200 5500
Wire Wire Line
	4200 5500 4200 5750
Wire Wire Line
	3600 5500 4200 5500
Connection ~ 3600 5500
Wire Wire Line
	3600 5500 3600 5750
Wire Wire Line
	3400 5500 3600 5500
Wire Wire Line
	3700 5600 4300 5600
Connection ~ 3700 5600
Wire Wire Line
	3700 5600 3700 5750
Wire Wire Line
	4300 5600 4900 5600
Connection ~ 4300 5600
Wire Wire Line
	4300 5600 4300 5750
Wire Wire Line
	4900 5600 5500 5600
Connection ~ 4900 5600
Wire Wire Line
	4900 5600 4900 5750
Wire Wire Line
	5500 5600 6100 5600
Connection ~ 5500 5600
Wire Wire Line
	5500 5600 5500 5750
Wire Wire Line
	6100 5600 6100 5750
Wire Wire Line
	4100 5100 5900 5100
Wire Wire Line
	4000 5200 5300 5200
Wire Wire Line
	3900 5300 4700 5300
Wire Wire Line
	3800 5400 4100 5400
Wire Wire Line
	3700 5450 3500 5450
Wire Wire Line
	3700 2500 3700 5450
$Comp
L Device:Q_NPN_EBC Q1
U 1 1 5D9A270C
P 2500 5900
F 0 "Q1" H 2691 5946 50  0000 L CNN
F 1 "Q_NPN_EBC" H 2691 5855 50  0000 L CNN
F 2 "Package_TO_SOT_THT:TO-92L_Inline_Wide" H 2700 6000 50  0001 C CNN
F 3 "~" H 2500 5900 50  0001 C CNN
	1    2500 5900
	1    0    0    -1  
$EndComp
Wire Wire Line
	4100 5100 4100 2900
Wire Wire Line
	4000 5200 4000 2800
Wire Wire Line
	3900 5300 3900 2700
Wire Wire Line
	3800 5400 3800 2600
Wire Wire Line
	1700 5900 2000 5900
Wire Wire Line
	2600 6100 2600 6300
Text Label 1700 5900 2    50   ~ 0
CTL_VBAT
$Comp
L power:+BATT #PWR0102
U 1 1 5D887AA5
P 3400 5500
F 0 "#PWR0102" H 3400 5350 50  0001 C CNN
F 1 "+BATT" H 3415 5673 50  0000 C CNN
F 2 "" H 3400 5500 50  0001 C CNN
F 3 "" H 3400 5500 50  0001 C CNN
	1    3400 5500
	1    0    0    -1  
$EndComp
$Comp
L Device:R R1
U 1 1 5D886CA5
P 2150 5900
F 0 "R1" V 1943 5900 50  0000 C CNN
F 1 "1K" V 2034 5900 50  0000 C CNN
F 2 "Resistor_THT:R_Axial_DIN0207_L6.3mm_D2.5mm_P10.16mm_Horizontal" V 2080 5900 50  0001 C CNN
F 3 "~" H 2150 5900 50  0001 C CNN
	1    2150 5900
	0    1    1    0   
$EndComp
$Comp
L power:GND #PWR0101
U 1 1 5D8862D7
P 2600 6300
F 0 "#PWR0101" H 2600 6050 50  0001 C CNN
F 1 "GND" H 2605 6127 50  0000 C CNN
F 2 "" H 2600 6300 50  0001 C CNN
F 3 "" H 2600 6300 50  0001 C CNN
	1    2600 6300
	1    0    0    -1  
$EndComp
Wire Wire Line
	3150 2500 3700 2500
Wire Wire Line
	3800 2600 4700 2600
Connection ~ 3700 2500
$Comp
L power:+BATT #PWR03
U 1 1 5EA05902
P 8850 4200
F 0 "#PWR03" H 8850 4050 50  0001 C CNN
F 1 "+BATT" H 8865 4373 50  0000 C CNN
F 2 "" H 8850 4200 50  0001 C CNN
F 3 "" H 8850 4200 50  0001 C CNN
	1    8850 4200
	1    0    0    -1  
$EndComp
$Comp
L power:GND #PWR04
U 1 1 5EA06422
P 8850 4950
F 0 "#PWR04" H 8850 4700 50  0001 C CNN
F 1 "GND" H 8855 4777 50  0000 C CNN
F 2 "" H 8850 4950 50  0001 C CNN
F 3 "" H 8850 4950 50  0001 C CNN
	1    8850 4950
	1    0    0    -1  
$EndComp
$Comp
L Device:R R12
U 1 1 5EA1C1EF
P 8850 4400
F 0 "R12" H 8780 4354 50  0000 R CNN
F 1 "30K" H 8780 4445 50  0000 R CNN
F 2 "Resistor_THT:R_Axial_DIN0207_L6.3mm_D2.5mm_P10.16mm_Horizontal" V 8780 4400 50  0001 C CNN
F 3 "~" H 8850 4400 50  0001 C CNN
	1    8850 4400
	-1   0    0    1   
$EndComp
$Comp
L Device:R R13
U 1 1 5EA1C68A
P 8850 4750
F 0 "R13" H 8780 4704 50  0000 R CNN
F 1 "20K" H 8780 4795 50  0000 R CNN
F 2 "Resistor_THT:R_Axial_DIN0207_L6.3mm_D2.5mm_P10.16mm_Horizontal" V 8780 4750 50  0001 C CNN
F 3 "~" H 8850 4750 50  0001 C CNN
	1    8850 4750
	-1   0    0    1   
$EndComp
Wire Wire Line
	8850 4550 8850 4600
Connection ~ 8850 4600
Wire Wire Line
	8850 4900 8850 4950
Wire Wire Line
	8850 4200 8850 4250
Text Label 4700 2400 2    50   ~ 0
CTL2_3V3
Wire Wire Line
	3150 2600 3800 2600
Connection ~ 3800 2600
Wire Wire Line
	3150 2700 3900 2700
Connection ~ 3900 2700
Wire Wire Line
	3150 2800 4000 2800
Connection ~ 4000 2800
Wire Wire Line
	3150 2900 4100 2900
Connection ~ 4100 2900
Text Label 2850 2250 1    50   ~ 0
CTL2_3V3
$Comp
L Device:R R8
U 1 1 5EA8E555
P 3000 3000
F 0 "R8" V 2950 3250 50  0000 R CNN
F 1 "10K" V 2950 3450 50  0000 R CNN
F 2 "Resistor_THT:R_Axial_DIN0207_L6.3mm_D2.5mm_P10.16mm_Horizontal" V 2930 3000 50  0001 C CNN
F 3 "~" H 3000 3000 50  0001 C CNN
	1    3000 3000
	0    1    1    0   
$EndComp
$Comp
L Device:R R9
U 1 1 5EAAA7FE
P 3000 3100
F 0 "R9" V 2950 3350 50  0000 R CNN
F 1 "10K" V 2950 3550 50  0000 R CNN
F 2 "Resistor_THT:R_Axial_DIN0207_L6.3mm_D2.5mm_P10.16mm_Horizontal" V 2930 3100 50  0001 C CNN
F 3 "~" H 3000 3100 50  0001 C CNN
	1    3000 3100
	0    1    1    0   
$EndComp
$Comp
L Device:R R10
U 1 1 5EAB08D8
P 3000 3200
F 0 "R10" V 2950 3450 50  0000 R CNN
F 1 "10K" V 2950 3650 50  0000 R CNN
F 2 "Resistor_THT:R_Axial_DIN0207_L6.3mm_D2.5mm_P10.16mm_Horizontal" V 2930 3200 50  0001 C CNN
F 3 "~" H 3000 3200 50  0001 C CNN
	1    3000 3200
	0    1    1    0   
$EndComp
$Comp
L Device:R R11
U 1 1 5EAB6898
P 3000 3300
F 0 "R11" V 2950 3550 50  0000 R CNN
F 1 "10K" V 2950 3750 50  0000 R CNN
F 2 "Resistor_THT:R_Axial_DIN0207_L6.3mm_D2.5mm_P10.16mm_Horizontal" V 2930 3300 50  0001 C CNN
F 3 "~" H 3000 3300 50  0001 C CNN
	1    3000 3300
	0    1    1    0   
$EndComp
$Comp
L Device:R R2
U 1 1 5EABCC52
P 3000 2500
F 0 "R2" V 2950 2750 50  0000 R CNN
F 1 "10K" V 2950 2950 50  0000 R CNN
F 2 "Resistor_THT:R_Axial_DIN0207_L6.3mm_D2.5mm_P10.16mm_Horizontal" V 2930 2500 50  0001 C CNN
F 3 "~" H 3000 2500 50  0001 C CNN
	1    3000 2500
	0    1    1    0   
$EndComp
$Comp
L Device:R R3
U 1 1 5EAC24D0
P 3000 2600
F 0 "R3" V 2950 2850 50  0000 R CNN
F 1 "10K" V 2950 3050 50  0000 R CNN
F 2 "Resistor_THT:R_Axial_DIN0207_L6.3mm_D2.5mm_P10.16mm_Horizontal" V 2930 2600 50  0001 C CNN
F 3 "~" H 3000 2600 50  0001 C CNN
	1    3000 2600
	0    1    1    0   
$EndComp
$Comp
L Device:R R4
U 1 1 5EAC7D87
P 3000 2700
F 0 "R4" V 2950 2950 50  0000 R CNN
F 1 "10K" V 2950 3150 50  0000 R CNN
F 2 "Resistor_THT:R_Axial_DIN0207_L6.3mm_D2.5mm_P10.16mm_Horizontal" V 2930 2700 50  0001 C CNN
F 3 "~" H 3000 2700 50  0001 C CNN
	1    3000 2700
	0    1    1    0   
$EndComp
$Comp
L Device:R R5
U 1 1 5EACD6B7
P 3000 2800
F 0 "R5" V 2950 3050 50  0000 R CNN
F 1 "10K" V 2950 3250 50  0000 R CNN
F 2 "Resistor_THT:R_Axial_DIN0207_L6.3mm_D2.5mm_P10.16mm_Horizontal" V 2930 2800 50  0001 C CNN
F 3 "~" H 3000 2800 50  0001 C CNN
	1    3000 2800
	0    1    1    0   
$EndComp
$Comp
L Device:R R6
U 1 1 5EAD2FC7
P 3000 2900
F 0 "R6" V 2950 3150 50  0000 R CNN
F 1 "10K" V 2950 3350 50  0000 R CNN
F 2 "Resistor_THT:R_Axial_DIN0207_L6.3mm_D2.5mm_P10.16mm_Horizontal" V 2930 2900 50  0001 C CNN
F 3 "~" H 3000 2900 50  0001 C CNN
	1    3000 2900
	0    1    1    0   
$EndComp
Wire Wire Line
	2850 2250 2850 2500
Wire Wire Line
	2850 2500 2850 2600
Connection ~ 2850 2500
Wire Wire Line
	2850 2600 2850 2700
Connection ~ 2850 2600
Wire Wire Line
	2850 2700 2850 2800
Connection ~ 2850 2700
Wire Wire Line
	2850 2800 2850 2900
Connection ~ 2850 2800
Wire Wire Line
	3150 3000 4200 3000
Connection ~ 4200 3000
Wire Wire Line
	4200 3000 4700 3000
Wire Wire Line
	3150 3100 4300 3100
Connection ~ 4300 3100
Wire Wire Line
	3150 3200 4400 3200
Connection ~ 4400 3200
Wire Wire Line
	3150 3300 4500 3300
Connection ~ 4500 3300
Connection ~ 5600 4050
Connection ~ 5300 4050
$Comp
L Local_MCU_Module:Stm32_Bluepill U1
U 1 1 5D86862D
P 5450 3000
F 0 "U1" H 4900 4250 60  0000 C CNN
F 1 "Stm32_Bluepill" H 4900 4150 60  0000 C CNN
F 2 "Local_MCU_Module:Stm32_Bluepill_A" H 5350 3750 60  0001 C CNN
F 3 "" H 5350 3750 60  0001 C CNN
	1    5450 3000
	1    0    0    -1  
$EndComp
Wire Wire Line
	6000 5500 6600 5500
Connection ~ 6000 5500
Wire Wire Line
	6100 5600 6700 5600
Connection ~ 6100 5600
Wire Wire Line
	2600 5700 2600 5600
Wire Wire Line
	2600 5600 3700 5600
$Comp
L power:GND #PWR02
U 1 1 5EB73539
P 3250 6300
F 0 "#PWR02" H 3250 6050 50  0001 C CNN
F 1 "GND" H 3255 6127 50  0000 C CNN
F 2 "" H 3250 6300 50  0001 C CNN
F 3 "" H 3250 6300 50  0001 C CNN
	1    3250 6300
	1    0    0    -1  
$EndComp
Wire Wire Line
	6600 5500 6600 5750
Wire Wire Line
	6700 5600 6700 5750
$Comp
L Connector_Generic:Conn_01x04 J8
U 1 1 5EB5299E
P 6700 5950
F 0 "J8" V 6572 6130 50  0000 L CNN
F 1 "Conn_01x04" V 6850 5700 50  0000 L CNN
F 2 "Connector_PinHeader_2.54mm:PinHeader_1x04_P2.54mm_Vertical" H 6700 5950 50  0001 C CNN
F 3 "~" H 6700 5950 50  0001 C CNN
	1    6700 5950
	0    1    1    0   
$EndComp
$Comp
L Connector_Generic:Conn_01x04 J7
U 1 1 5EB7F787
P 6100 5950
F 0 "J7" V 5972 6130 50  0000 L CNN
F 1 "Conn_01x04" V 6250 5700 50  0000 L CNN
F 2 "Connector_PinHeader_2.54mm:PinHeader_1x04_P2.54mm_Vertical" H 6100 5950 50  0001 C CNN
F 3 "~" H 6100 5950 50  0001 C CNN
	1    6100 5950
	0    1    1    0   
$EndComp
$Comp
L Connector_Generic:Conn_01x04 J6
U 1 1 5EB7FF1D
P 5500 5950
F 0 "J6" V 5372 6130 50  0000 L CNN
F 1 "Conn_01x04" V 5650 5700 50  0000 L CNN
F 2 "Connector_PinHeader_2.54mm:PinHeader_1x04_P2.54mm_Vertical" H 5500 5950 50  0001 C CNN
F 3 "~" H 5500 5950 50  0001 C CNN
	1    5500 5950
	0    1    1    0   
$EndComp
$Comp
L Connector_Generic:Conn_01x04 J5
U 1 1 5EB804B5
P 4900 5950
F 0 "J5" V 4772 6130 50  0000 L CNN
F 1 "Conn_01x04" V 5050 5700 50  0000 L CNN
F 2 "Connector_PinHeader_2.54mm:PinHeader_1x04_P2.54mm_Vertical" H 4900 5950 50  0001 C CNN
F 3 "~" H 4900 5950 50  0001 C CNN
	1    4900 5950
	0    1    1    0   
$EndComp
$Comp
L Connector_Generic:Conn_01x04 J4
U 1 1 5EB80984
P 4300 5950
F 0 "J4" V 4172 6130 50  0000 L CNN
F 1 "Conn_01x04" V 4450 5700 50  0000 L CNN
F 2 "Connector_PinHeader_2.54mm:PinHeader_1x04_P2.54mm_Vertical" H 4300 5950 50  0001 C CNN
F 3 "~" H 4300 5950 50  0001 C CNN
	1    4300 5950
	0    1    1    0   
$EndComp
$Comp
L Connector_Generic:Conn_01x04 J3
U 1 1 5EB80EEB
P 3700 5950
F 0 "J3" V 3572 6130 50  0000 L CNN
F 1 "Conn_01x04" V 3850 5700 50  0000 L CNN
F 2 "Connector_PinHeader_2.54mm:PinHeader_1x04_P2.54mm_Vertical" H 3700 5950 50  0001 C CNN
F 3 "~" H 3700 5950 50  0001 C CNN
	1    3700 5950
	0    1    1    0   
$EndComp
Wire Wire Line
	6500 5000 6500 5750
Wire Wire Line
	4200 5000 6500 5000
Wire Wire Line
	3250 6300 3250 5700
Wire Wire Line
	3250 5700 3800 5700
Wire Wire Line
	6800 5700 6800 5750
Wire Wire Line
	3800 5750 3800 5700
Connection ~ 3800 5700
Wire Wire Line
	3800 5700 4400 5700
Wire Wire Line
	4400 5750 4400 5700
Connection ~ 4400 5700
Wire Wire Line
	4400 5700 5000 5700
Wire Wire Line
	5000 5750 5000 5700
Connection ~ 5000 5700
Wire Wire Line
	5000 5700 5600 5700
Wire Wire Line
	5600 5750 5600 5700
Connection ~ 5600 5700
Wire Wire Line
	5600 5700 6200 5700
Wire Wire Line
	6200 5750 6200 5700
Connection ~ 6200 5700
Wire Wire Line
	6200 5700 6800 5700
$Comp
L Connector_Generic:Conn_01x04 J9
U 1 1 5EBFBC05
P 7300 5950
F 0 "J9" V 7172 6130 50  0000 L CNN
F 1 "Conn_01x04" V 7450 5700 50  0000 L CNN
F 2 "Connector_PinHeader_2.54mm:PinHeader_1x04_P2.54mm_Vertical" H 7300 5950 50  0001 C CNN
F 3 "~" H 7300 5950 50  0001 C CNN
	1    7300 5950
	0    1    1    0   
$EndComp
$Comp
L Connector_Generic:Conn_01x04 J10
U 1 1 5EBFC33F
P 7900 5950
F 0 "J10" V 7772 6130 50  0000 L CNN
F 1 "Conn_01x04" V 8050 5700 50  0000 L CNN
F 2 "Connector_PinHeader_2.54mm:PinHeader_1x04_P2.54mm_Vertical" H 7900 5950 50  0001 C CNN
F 3 "~" H 7900 5950 50  0001 C CNN
	1    7900 5950
	0    1    1    0   
$EndComp
$Comp
L Connector_Generic:Conn_01x04 J11
U 1 1 5EBFCA1E
P 8500 5950
F 0 "J11" V 8372 6130 50  0000 L CNN
F 1 "Conn_01x04" V 8650 5700 50  0000 L CNN
F 2 "Connector_PinHeader_2.54mm:PinHeader_1x04_P2.54mm_Vertical" H 8500 5950 50  0001 C CNN
F 3 "~" H 8500 5950 50  0001 C CNN
	1    8500 5950
	0    1    1    0   
$EndComp
Wire Wire Line
	7100 4900 7100 5750
Wire Wire Line
	4300 4900 7100 4900
Wire Wire Line
	7700 4800 7700 5750
Wire Wire Line
	4400 4800 7700 4800
Wire Wire Line
	8300 4700 8300 5750
Wire Wire Line
	4500 4700 8300 4700
Wire Wire Line
	6600 5500 7200 5500
Wire Wire Line
	7200 5500 7200 5750
Connection ~ 6600 5500
Wire Wire Line
	7200 5500 7800 5500
Wire Wire Line
	7800 5500 7800 5750
Connection ~ 7200 5500
Wire Wire Line
	7800 5500 8400 5500
Wire Wire Line
	8400 5500 8400 5750
Connection ~ 7800 5500
Wire Wire Line
	6700 5600 7300 5600
Wire Wire Line
	7300 5600 7300 5750
Connection ~ 6700 5600
Wire Wire Line
	7300 5600 7900 5600
Wire Wire Line
	7900 5600 7900 5750
Connection ~ 7300 5600
Wire Wire Line
	7900 5600 8500 5600
Wire Wire Line
	8500 5600 8500 5750
Connection ~ 7900 5600
Wire Wire Line
	6800 5700 7400 5700
Wire Wire Line
	7400 5700 7400 5750
Connection ~ 6800 5700
Wire Wire Line
	7400 5700 8000 5700
Wire Wire Line
	8000 5700 8000 5750
Connection ~ 7400 5700
Wire Wire Line
	8000 5700 8600 5700
Wire Wire Line
	8600 5700 8600 5750
Connection ~ 8000 5700
Connection ~ 2850 3100
Wire Wire Line
	2850 3000 2850 3100
Connection ~ 2850 3200
Wire Wire Line
	2850 3100 2850 3200
Connection ~ 2850 3300
Wire Wire Line
	2850 3200 2850 3300
Wire Wire Line
	2850 3300 2850 3450
Text Label 2850 3450 3    50   ~ 0
CTL_3V3
$Comp
L power:GND #PWR01
U 1 1 5ECC01BC
P 2050 4450
F 0 "#PWR01" H 2050 4200 50  0001 C CNN
F 1 "GND" H 2055 4277 50  0000 C CNN
F 2 "" H 2050 4450 50  0001 C CNN
F 3 "" H 2050 4450 50  0001 C CNN
	1    2050 4450
	-1   0    0    1   
$EndComp
Text Label 2050 4600 2    50   ~ 0
lion+
Text Label 2050 4500 2    50   ~ 0
lion_gnd
$Comp
L power:+BATT #PWR0108
U 1 1 5D9567F4
P 1950 4900
F 0 "#PWR0108" H 1950 4750 50  0001 C CNN
F 1 "+BATT" V 1900 4900 50  0000 C CNN
F 2 "" H 1950 4900 50  0001 C CNN
F 3 "" H 1950 4900 50  0001 C CNN
	1    1950 4900
	0    -1   -1   0   
$EndComp
$Comp
L Connector_Generic:Conn_01x02 J1
U 1 1 5E9ED5D1
P 2250 4500
F 0 "J1" H 2330 4492 50  0000 L CNN
F 1 "Conn_01x02" H 2330 4401 50  0000 L CNN
F 2 "Connector_PinHeader_2.54mm:PinHeader_1x02_P2.54mm_Vertical" H 2250 4500 50  0001 C CNN
F 3 "~" H 2250 4500 50  0001 C CNN
	1    2250 4500
	1    0    0    -1  
$EndComp
$Comp
L Connector_Generic:Conn_01x02 J2
U 1 1 5E9EE0E6
P 2250 4800
F 0 "J2" H 2330 4792 50  0000 L CNN
F 1 "Conn_01x02" H 2330 4701 50  0000 L CNN
F 2 "Connector_PinHeader_2.54mm:PinHeader_1x02_P2.54mm_Vertical" H 2250 4800 50  0001 C CNN
F 3 "~" H 2250 4800 50  0001 C CNN
	1    2250 4800
	1    0    0    -1  
$EndComp
Wire Wire Line
	2050 4600 2050 4800
Wire Wire Line
	2050 4450 2050 4500
Wire Wire Line
	1950 4900 2050 4900
$EndSCHEMATC
